<?xml version="1.0" encoding="UTF-8" ?>
<testsuite tests="13" failures="0" name="com.mycompany.myestate.models.ContractorTest" time="0" errors="0" skipped="0">
  <properties>
    <property name="java.runtime.name" value="Java(TM) SE Runtime Environment"/>
    <property name="java.vm.version" value="15.0.2+7-27"/>
    <property name="sun.boot.library.path" value="C:\Program Files\Java\jdk-15.0.2\bin"/>
    <property name="maven.multiModuleProjectDirectory" value="C:\Users\leduy\courses\java410\java-individual-project\myestate"/>
    <property name="java.vm.vendor" value="Oracle Corporation"/>
    <property name="java.vendor.url" value="https://java.oracle.com/"/>
    <property name="guice.disable.misplaced.annotation.check" value="true"/>
    <property name="path.separator" value=";"/>
    <property name="java.vm.name" value="Java HotSpot(TM) 64-Bit Server VM"/>
    <property name="sun.os.patch.level" value=""/>
    <property name="user.script" value=""/>
    <property name="user.country" value="CA"/>
    <property name="sun.java.launcher" value="SUN_STANDARD"/>
    <property name="test" value="com.mycompany.myestate.**.*Test"/>
    <property name="java.vm.specification.name" value="Java Virtual Machine Specification"/>
    <property name="user.dir" value="C:\Users\leduy\courses\java410\java-individual-project\myestate"/>
    <property name="java.vm.compressedOopsMode" value="32-bit"/>
    <property name="java.runtime.version" value="15.0.2+7-27"/>
    <property name="os.arch" value="amd64"/>
    <property name="java.io.tmpdir" value="C:\Users\leduy\AppData\Local\Temp\"/>
    <property name="line.separator" value="
"/>
    <property name="java.vm.specification.vendor" value="Oracle Corporation"/>
    <property name="user.variant" value=""/>
    <property name="os.name" value="Windows 10"/>
    <property name="maven.ext.class.path" value="C:\Program Files\NetBeans-12.3\netbeans\java\maven-nblib\netbeans-eventspy.jar"/>
    <property name="classworlds.conf" value="C:\Program Files\NetBeans-12.3\netbeans\java\maven\bin\..\bin\m2.conf"/>
    <property name="sun.jnu.encoding" value="Cp1252"/>
    <property name="java.library.path" value="C:\Program Files\Java\jdk-15.0.2\bin;C:\WINDOWS\Sun\Java\bin;C:\WINDOWS\system32;C:\WINDOWS;C:\Program Files\Common Files\Oracle\Java\javapath;D:\oraclexe\app\oracle\product\11.2.0\server\bin;C:\Program Files (x86)\Intel\Intel(R) Management Engine Components\iCLS\;C:\Program Files\Intel\Intel(R) Management Engine Components\iCLS\;C:\Windows\system32;C:\Windows;C:\Windows\System32\Wbem;C:\Windows\System32\WindowsPowerShell\v1.0\;C:\Windows\System32\OpenSSH\;C:\Program Files (x86)\Intel\Intel(R) Management Engine Components\DAL;C:\Program Files\Intel\Intel(R) Management Engine Components\DAL;C:\Program Files (x86)\NVIDIA Corporation\PhysX\Common;C:\Program Files\Intel\WiFi\bin\;C:\Program Files\Common Files\Intel\WirelessCommon\;C:\Program Files\Git\cmd;C:\Program Files\Git\mingw64\bin;C:\Program Files\Git\usr\bin;C:\Program Files\NVIDIA Corporation\NVIDIA NvDLISR;C:\Program Files\dotnet\;C:\WINDOWS\system32;C:\WINDOWS;C:\WINDOWS\System32\Wbem;C:\WINDOWS\System32\WindowsPowerShell\v1.0\;C:\WINDOWS\System32\OpenSSH\;C:\Program Files\PuTTY\;C:\Program Files\Docker\Docker\resources\bin;C:\ProgramData\DockerDesktop\version-bin;C:\Program Files\MySQL\MySQL Shell 8.0\bin\;C:\Users\leduy\anaconda3;C:\Users\leduy\anaconda3\Library\mingw-w64\bin;C:\Users\leduy\anaconda3\Library\usr\bin;C:\Users\leduy\anaconda3\Library\bin;C:\Users\leduy\anaconda3\Scripts;C:\Users\leduy\AppData\Local\BCML\bin;C:\Program Files\Java\jdk-13.0.2\bin;C:\Users\leduy\AppData\Local\Microsoft\WindowsApps;C:\Users\leduy\AppData\Local\Programs\Microsoft VS Code\bin;C:\Program Files\MongoDB\Server\4.4\bin;C:\Program Files\JetBrains\PyCharm Community Edition 2020.3.5\bin;;C:\Program Files\heroku\bin;."/>
    <property name="maven.conf" value="C:\Program Files\NetBeans-12.3\netbeans\java\maven\bin\../conf"/>
    <property name="jdk.debug" value="release"/>
    <property name="java.class.version" value="59.0"/>
    <property name="java.specification.name" value="Java Platform API Specification"/>
    <property name="sun.management.compiler" value="HotSpot 64-Bit Tiered Compilers"/>
    <property name="os.version" value="10.0"/>
    <property name="library.jansi.path" value="C:\Program Files\NetBeans-12.3\netbeans\java\maven\bin\..\lib\jansi-native"/>
    <property name="user.home" value="C:\Users\leduy"/>
    <property name="user.timezone" value="America/Toronto"/>
    <property name="file.encoding" value="UTF-8"/>
    <property name="java.specification.version" value="15"/>
    <property name="user.name" value="leduy"/>
    <property name="java.class.path" value="C:\Program Files\NetBeans-12.3\netbeans\java\maven\bin\..\boot\plexus-classworlds-2.6.0.jar"/>
    <property name="java.vm.specification.version" value="15"/>
    <property name="sun.arch.data.model" value="64"/>
    <property name="sun.java.command" value="org.codehaus.plexus.classworlds.launcher.Launcher -Dtest=com.mycompany.myestate.**.*Test -Dmaven.ext.class.path=C:\Program Files\NetBeans-12.3\netbeans\java\maven-nblib\netbeans-eventspy.jar -Dfile.encoding=UTF-8 process-test-classes surefire:test"/>
    <property name="java.home" value="C:\Program Files\Java\jdk-15.0.2"/>
    <property name="user.language" value="en"/>
    <property name="java.specification.vendor" value="Oracle Corporation"/>
    <property name="java.vm.info" value="mixed mode, sharing"/>
    <property name="java.version" value="15.0.2"/>
    <property name="java.vendor" value="Oracle Corporation"/>
    <property name="maven.home" value="C:\Program Files\NetBeans-12.3\netbeans\java\maven\bin\.."/>
    <property name="file.separator" value="\"/>
    <property name="java.version.date" value="2021-01-19"/>
    <property name="java.vendor.url.bug" value="https://bugreport.java.com/bugreport/"/>
    <property name="sun.io.unicode.encoding" value="UnicodeLittle"/>
    <property name="sun.cpu.endian" value="little"/>
    <property name="sun.cpu.isalist" value="amd64"/>
  </properties>
  <testcase classname="com.mycompany.myestate.models.ContractorTest" name="com.mycompany.myestate.models.ContractorTest.testSetContractorProfession" time="0"/>
  <testcase classname="com.mycompany.myestate.models.ContractorTest" name="com.mycompany.myestate.models.ContractorTest.testGetContractorPhoneNumber" time="0"/>
  <testcase classname="com.mycompany.myestate.models.ContractorTest" name="com.mycompany.myestate.models.ContractorTest.testGetContractorEmail" time="0"/>
  <testcase classname="com.mycompany.myestate.models.ContractorTest" name="com.mycompany.myestate.models.ContractorTest.testGetContractorProfession" time="0"/>
  <testcase classname="com.mycompany.myestate.models.ContractorTest" name="com.mycompany.myestate.models.ContractorTest.testSetContractorCompany" time="0"/>
  <testcase classname="com.mycompany.myestate.models.ContractorTest" name="com.mycompany.myestate.models.ContractorTest.testGetContractorName" time="0"/>
  <testcase classname="com.mycompany.myestate.models.ContractorTest" name="com.mycompany.myestate.models.ContractorTest.testGetContractorCompany" time="0"/>
  <testcase classname="com.mycompany.myestate.models.ContractorTest" name="com.mycompany.myestate.models.ContractorTest.testSetContractorName" time="0"/>
  <testcase classname="com.mycompany.myestate.models.ContractorTest" name="com.mycompany.myestate.models.ContractorTest.testSetContractorPhoneNumber" time="0"/>
  <testcase classname="com.mycompany.myestate.models.ContractorTest" name="com.mycompany.myestate.models.ContractorTest.testSetContractorEmail" time="0"/>
  <testcase classname="com.mycompany.myestate.models.ContractorTest" name="com.mycompany.myestate.models.ContractorTest.testEquals" time="0"/>
  <testcase classname="com.mycompany.myestate.models.ContractorTest" name="com.mycompany.myestate.models.ContractorTest.testToString" time="0"/>
  <testcase classname="com.mycompany.myestate.models.ContractorTest" name="com.mycompany.myestate.models.ContractorTest.testGetPk" time="0"/>
</testsuite>